<svg xmlns="http://www.w3.org/2000/svg" xmlns:xlink="http://www.w3.org/1999/xlink" width="368" height="614" viewBox="0 0 368 614">
    <defs>
        <linearGradient id="c" x1="50%" x2="50%" y1="50%" y2="100%">
            <stop offset="0%" stop-color="#FFF"/>
            <stop offset="100%" stop-color="#FAFBFC"/>
        </linearGradient>
        <path id="b" d="M37.244 0h167.512C225.326 0 242 16.675 242 37.244v413.512c0 20.57-16.675 37.244-37.244 37.244H37.244C16.674 488 0 471.325 0 450.756V37.244C0 16.674 16.675 0 37.244 0z"/>
        <filter id="a" width="192.6%" height="145.9%" x="-46.3%" y="-16.4%" filterUnits="objectBoundingBox">
            <feOffset dy="32" in="SourceAlpha" result="shadowOffsetOuter1"/>
            <feGaussianBlur in="shadowOffsetOuter1" result="shadowBlurOuter1" stdDeviation="32"/>
            <feColorMatrix in="shadowBlurOuter1" values="0 0 0 0 0 0 0 0 0 0.0784313725 0 0 0 0 0.141176471 0 0 0 0.101753715 0"/>
        </filter>
        <filter id="d" width="159.5%" height="129.5%" x="-29.8%" y="-8.2%" filterUnits="objectBoundingBox">
            <feGaussianBlur in="SourceAlpha" result="shadowBlurInner1" stdDeviation="5.5"/>
            <feOffset dy="-5" in="shadowBlurInner1" result="shadowOffsetInner1"/>
            <feComposite in="shadowOffsetInner1" in2="SourceAlpha" k2="-1" k3="1" operator="arithmetic" result="shadowInnerInner1"/>
            <feColorMatrix in="shadowInnerInner1" values="0 0 0 0 0 0 0 0 0 0 0 0 0 0 0 0 0 0 0.05 0"/>
        </filter>
        <path id="e" d="M0 247.381V117.774v318.383c0 11.73 9.683 21.413 21.436 21.413h168.667c11.753 0 21.435-9.683 21.435-21.413V21.413C211.538 9.683 201.856 0 190.103 0h-22a3.386 3.386 0 0 0-3.385 3.386v.559c.187 7.576-5.864 13.628-13.539 13.524H59.795c-7.786.104-13.838-5.948-13.539-13.524v-.56A3.386 3.386 0 0 0 42.871 0H21.436C9.683 0 0 9.683 0 21.413v99.178"/>
    </defs>
    <g fill="none" fill-rule="evenodd">
        <g transform="translate(63 31)">
            <use fill="#000" filter="url(#a)" xlink:href="#b"/>
            <use fill="url(#c)" xlink:href="#b"/>
            <use fill="#000" filter="url(#d)" xlink:href="#b"/>
        </g>
        <use fill="#FBFBFB" transform="translate(77.667 45.651)" xlink:href="#e"/>
    </g>
</svg>
