<svg xmlns="http://www.w3.org/2000/svg" width="288" height="320" viewBox="0 0 288 320">
    <g fill="none" fill-rule="evenodd">
        <path fill="#D6D8E5" fill-rule="nonzero" d="M164.864 220.672l-8.442-4.627 7.495-4.327 8.441 4.628zM210.253 247.392l-8.442-4.634 7.495-4.32 8.435 4.628z" opacity=".4"/>
        <path fill="#B1B4C4" fill-rule="nonzero" d="M168.16 218.726l-7.962-4.595 25.357-80.998 7.962 4.595z"/>
        <path fill="#9EA2B2" fill-rule="nonzero" d="M172.826 216.154l-7.962-4.596 25.357-80.998 7.955 4.595z"/>
        <path fill="#B1B4C4" fill-rule="nonzero" d="M168.16 218.726l-7.962-4.595 25.357-80.998 7.962 4.595z"/>
        <path fill="#9EA2B2" fill-rule="nonzero" d="M219.616 242.17l-8.02-4.634-10.95-101.958 7.962 4.601z"/>
        <path fill="#B1B4C4" fill-rule="nonzero" d="M214.042 245.35l-8.02-4.633-10.95-101.959 7.962 4.596z"/>
        <path fill="#D6D8E5" fill-rule="nonzero" d="M277.146 182.01L127.552 95.642l6.758-3.904 149.594 86.368z"/>
        <path fill="#B1B4C4" fill-rule="nonzero" d="M277.146 189.798L127.552 103.43v-7.808l149.594 86.368z"/>
        <path fill="#F4F4F4" fill-rule="nonzero" d="M274.118 176.154l-137.76-79.54V0l137.76 79.54z"/>
        <path fill="#9EA2B2" fill-rule="nonzero" d="M284.013 185.837l-6.867 3.961v-7.93l6.867-3.96z"/>
        <path fill="#D6D8E5" fill-rule="nonzero" d="M157.914 28.787l-11.412-6.585v-4.39l11.412 6.585zM182.842 43.18l-20.07-11.583V27.2l20.07 11.59zM157.914 37.082l-11.412-6.586v-4.39l11.412 6.585zM182.842 51.475l-20.07-11.584v-4.397l20.07 11.59zM157.914 46.598l-11.412-6.585v-4.397l11.412 6.592zM182.842 60.992l-20.07-11.59v-4.39l20.07 11.59zM157.914 56.115l-11.412-6.592v-4.39l11.412 6.585zM182.842 70.509l-20.07-11.59v-4.391l20.07 11.59z"/>
        <path fill="#9ACC12" fill-rule="nonzero" d="M197.664 53.26c2.528-3.263 7.04-3.788 12.224-.806.5.288.992.602 1.472.935l-1.44 15.654-12.3-15.718.044-.064z"/>
        <path fill="#E8BC05" fill-rule="nonzero" d="M223.315 70.906l-13.44-1.863 1.472-15.654c5.504 3.82 10.093 10.681 11.968 17.517z"/>
        <path fill="#EF6848" fill-rule="nonzero" d="M224.256 77.338c0 7.04-3.84 10.88-9.197 10.182l-5.139-18.477 13.44 1.863c.59 2.093.891 4.257.896 6.432z"/>
        <path fill="#BE4AED" fill-rule="nonzero" d="M197.62 53.325c-1.332 1.747-2.1 4.262-2.1 7.424 0 9.165 6.432 20.3 14.368 24.883a14.195 14.195 0 0 0 5.165 1.882l-5.133-18.47-12.224-15.783-.077.064z"/>
        <path fill="#543526" fill-rule="nonzero" d="M237.389 76.198c2.528-3.264 7.04-3.788 12.224-.812.499.288.985.601 1.472.94L249.6 91.981l-12.275-15.725.064-.058z"/>
        <path fill="#1B96EA" fill-rule="nonzero" d="M263.04 93.837L249.6 91.98l1.472-15.655c5.504 3.815 10.086 10.676 11.968 17.51z"/>
        <path fill="#FF5050" fill-rule="nonzero" d="M263.98 100.275c0 7.04-3.84 10.88-9.196 10.176l-5.184-18.47 13.44 1.856c.601 2.094.918 4.26.94 6.438z"/>
        <path fill="#32CEC3" fill-rule="nonzero" d="M237.338 76.256c-1.325 1.754-2.093 4.262-2.093 7.424 0 9.165 6.432 20.307 14.368 24.89a14.08 14.08 0 0 0 5.165 1.875L249.6 91.98l-12.224-15.783-.038.058z"/>
        <path stroke="#D6D8E5" stroke-width="1.42" d="M197.62 121.978s9.734-18.56 34.457 5.12 30.963 5.312 30.963 5.312"/>
        <ellipse cx="218.654" cy="117.114" fill="#D6D8E5" fill-rule="nonzero" rx="1.683" ry="2.912" transform="rotate(-30 218.654 117.114)"/>
        <ellipse cx="201.173" cy="117.08" fill="#D6D8E5" fill-rule="nonzero" rx="1.683" ry="2.912" transform="rotate(-30 201.173 117.08)"/>
        <ellipse cx="238.285" cy="131.782" fill="#D6D8E5" fill-rule="nonzero" rx="1.689" ry="2.922" transform="rotate(-29.887 238.285 131.782)"/>
        <ellipse cx="258.387" cy="137.669" fill="#D6D8E5" fill-rule="nonzero" rx="1.683" ry="2.912" transform="rotate(-30 258.387 137.669)"/>
        <path fill="#D6D8E5" fill-rule="nonzero" d="M150.406 95.578l-3.904-2.26V79.776l3.904 2.26zM161.222 101.818l-3.91-2.26V81.261l3.91 2.259zM172.032 108.058l-3.91-2.253V79.578l3.91 2.252zM182.842 114.298l-3.91-2.253v-32.57l3.91 2.253z"/>
        <path fill="#9EA2B2" fill-rule="nonzero" d="M214.042 245.35l5.574-3.18-6.675-7.002zM168.16 218.726l4.666-2.572-1.792-6.605z"/>
        <g fill-rule="nonzero" transform="translate(62.08 259.84)">
            <ellipse cx="22.406" cy="22.24" fill="#D6D8E5" opacity=".3" rx="22.374" ry="12.922"/>
            <ellipse cx="27.942" cy="18.918" fill="#DD990E" rx="22.374" ry="12.922"/>
            <path fill="#DD990E" d="M5.574 19.11V13.23l4.423 3.936zM50.323 13.382v5.536l-2.265 2.4-1.108-6.342z"/>
            <ellipse cx="27.942" cy="13.382" fill="#F9CB07" rx="22.374" ry="12.922"/>
            <path fill="#CC8B09" d="M43.936 13.78c-.23 2.175-1.78 4.32-4.666 5.983-6.252 3.61-16.396 3.61-22.656 0-2.88-1.664-4.435-3.808-4.652-5.984-.276-2.56 1.28-5.12 4.652-7.091 6.26-3.616 16.404-3.616 22.656 0 3.373 1.946 4.928 4.544 4.666 7.091z"/>
            <path fill="#E8A30A" d="M43.936 13.78c-.23 2.175-1.78 4.32-4.666 5.983-6.252 3.61-16.396 3.61-22.656 0-2.88-1.664-4.435-3.808-4.652-5.984.217-2.176 1.772-4.32 4.652-5.984 6.26-3.616 16.404-3.616 22.656 0 2.887 1.664 4.436 3.808 4.666 5.984z"/>
            <path fill="#CC8B09" d="M27.712 10.752a3.38 3.38 0 0 0-.589.051c-.262.032-.557.09-.883.154-.326.064-.672.16-1.024.262a8.16 8.16 0 0 0-1.005.384l2.56 1.485.467-.16c.64-.218 1.28-.403 1.85-.557a8.429 8.429 0 0 1 1.664-.275 6.086 6.086 0 0 1 1.536.102 4.883 4.883 0 0 1 1.46.576c.448.223.832.558 1.113.973.185.3.243.662.16 1.005-.109.378-.316.72-.602.992-.355.354-.75.665-1.177.928l1.638.94-.89.52-1.65-.954a13.9 13.9 0 0 1-2.458.928c-.887.244-1.793.413-2.708.505l-.864-1.549c.16 0 .404 0 .724-.05.32-.052.684-.103 1.081-.186a21.95 21.95 0 0 0 1.28-.32 9.414 9.414 0 0 0 1.28-.474l-2.56-1.472-.339.115-.346.103c-.58.2-1.173.366-1.772.499a7.75 7.75 0 0 1-1.51.205 5.005 5.005 0 0 1-1.332-.128 4.531 4.531 0 0 1-1.229-.493 3.155 3.155 0 0 1-1.075-.922 1.555 1.555 0 0 1-.288-.992c.04-.367.187-.714.422-.998a4.602 4.602 0 0 1 1.044-.947l-1.517-.877.89-.512 1.503.864c.705-.35 1.445-.62 2.208-.807a16.5 16.5 0 0 1 2.208-.403l.73 1.485zm-4.378 2.688c.341.191.732.274 1.12.237a7.04 7.04 0 0 0 1.53-.346l-2.406-1.389c-.884.572-.965 1.071-.244 1.498zm8.448.704a1.92 1.92 0 0 0-1.203-.218c-.569.073-1.13.197-1.677.372l2.394 1.382c1.018-.614 1.184-1.126.486-1.523v-.013z"/>
            <path fill="#CC8B09" d="M26.323 17.062v-.864l.986.64-.429.64-.557-.416zM34.893 17.613v-.864l-2.131.16 1.222.832zM35.072 14.432v-.877l-1.594.576zM28.474 14.38l.53-.505 1.87 1.28-.116.378s-1.395-.589-1.44-.64l-.844-.512zM23.584 11.648l2.477 1.408.512-.371s-.314-.352-.34-.39a3.411 3.411 0 0 0-.767-.64c-.186-.033-1.364-.564-1.364-.564l-.518.557zM27.712 10.752v-.864l-1.14-.371-.249.678.064.314zM20.14 10.125V9.26l1.32.14-.423.839zM20.186 13.069v-.909h1.516l-.37.813-.64.717z"/>
            <path fill="#F9CA06" d="M27.712 9.888a3.238 3.238 0 0 0-.589.045c-.262.038-.557.09-.883.16-.326.07-.672.153-1.024.262-.344.101-.68.227-1.005.378l2.56 1.491.467-.166c.64-.218 1.28-.404 1.85-.55a8.429 8.429 0 0 1 1.664-.276c.514-.034 1.03 0 1.536.102.515.107 1.008.3 1.46.57.447.225.83.56 1.113.973.185.3.242.662.16 1.005a2.176 2.176 0 0 1-.602.992c-.355.354-.75.665-1.177.928l1.638.947-.89.512-1.65-.954c-.788.389-1.61.7-2.458.928-.886.248-1.792.417-2.708.506l-.864-1.543c.242-.006.484-.025.724-.057.363-.043.724-.105 1.081-.186a21.95 21.95 0 0 0 1.28-.32c.438-.124.865-.28 1.28-.467l-2.56-1.478-.339.115-.346.109c-.64.21-1.235.377-1.772.499a7.718 7.718 0 0 1-1.51.198 5.286 5.286 0 0 1-1.332-.121 4.358 4.358 0 0 1-1.229-.5 3.155 3.155 0 0 1-1.075-.921 1.542 1.542 0 0 1-.288-.992c.04-.367.187-.714.422-.999a4.442 4.442 0 0 1 1.044-.94l-1.517-.877.89-.519 1.503.87c.704-.35 1.445-.623 2.208-.812a15.488 15.488 0 0 1 2.208-.397l.73 1.485zm-4.378 2.694c.34.194.731.278 1.12.244a7.853 7.853 0 0 0 1.53-.346l-2.406-1.395c-.884.584-.965 1.084-.244 1.497zm8.448.704a1.92 1.92 0 0 0-1.203-.217c-.568.075-1.13.2-1.677.371l2.394 1.382c1.018-.62 1.184-1.132.486-1.536z"/>
        </g>
        <g fill-rule="nonzero" transform="translate(69.12 252.8)">
            <ellipse cx="22.733" cy="19.066" fill="#DD990E" rx="22.374" ry="12.922"/>
            <path fill="#DD990E" d="M.365 19.264v-5.888l4.416 3.936zM45.107 13.53v5.536l-2.259 2.4-1.107-6.336z"/>
            <ellipse cx="22.733" cy="13.53" fill="#F9CB07" rx="22.374" ry="12.922"/>
            <path fill="#CC8B09" d="M38.72 13.933c-.224 2.176-1.773 4.32-4.66 5.984-6.258 3.61-16.396 3.61-22.655 0-2.887-1.664-4.435-3.808-4.653-5.984-.275-2.56 1.28-5.12 4.653-7.091 6.259-3.616 16.397-3.616 22.656 0 3.373 1.939 4.928 4.544 4.659 7.09z"/>
            <path fill="#E8A30A" d="M38.72 13.933c-.224 2.176-1.773 4.32-4.66 5.984-6.258 3.61-16.396 3.61-22.655 0-2.887-1.664-4.435-3.808-4.653-5.984.218-2.176 1.766-4.32 4.653-5.984 6.259-3.616 16.397-3.616 22.656 0 2.886 1.651 4.435 3.808 4.659 5.984z"/>
            <path fill="#CC8B09" d="M22.496 10.88a3.315 3.315 0 0 0-.589.045 13.334 13.334 0 0 0-1.9.422c-.345.103-.68.231-1.005.384l2.56 1.485.46-.166c.64-.218 1.28-.404 1.856-.55a8.429 8.429 0 0 1 1.664-.276 5.76 5.76 0 0 1 1.53.102c.516.11 1.01.302 1.466.57.445.225.827.56 1.107.973.187.3.247.66.166 1.005-.11.377-.317.72-.601.992a6.189 6.189 0 0 1-1.178.928l1.638.947-.896.512-1.65-.954c-.785.39-1.606.7-2.452.928-.886.247-1.792.416-2.707.506l-.845-1.517a6.79 6.79 0 0 0 .723-.058c.362-.043.72-.105 1.075-.185.397-.083.82-.192 1.28-.32a8.589 8.589 0 0 0 1.28-.467l-2.56-1.479-.332.115-.352.11c-.64.213-1.23.379-1.767.498a7.776 7.776 0 0 1-1.51.199 4.986 4.986 0 0 1-1.331-.122 4.48 4.48 0 0 1-1.236-.499 3.2 3.2 0 0 1-1.068-.915 1.555 1.555 0 0 1-.288-.992c.035-.37.182-.72.422-1.005a4.403 4.403 0 0 1 1.037-.94l-1.517-.878.896-.518 1.504.87c.704-.35 1.444-.623 2.208-.812a15.488 15.488 0 0 1 2.208-.397l.704 1.459zm-4.371 2.694c.336.196.726.281 1.113.244a7.802 7.802 0 0 0 1.536-.346l-2.412-1.389c-.884.593-.963 1.099-.237 1.517v-.026zm8.448.704a1.92 1.92 0 0 0-1.203-.21 9.99 9.99 0 0 0-1.684.364l2.394 1.382c1.024-.595 1.184-1.094.493-1.51v-.026z"/>
            <path fill="#CC8B09" d="M21.12 17.216v-.87l.986.64-.43.64-.556-.41zM29.683 17.766v-.87l-2.131.166 1.222.832zM29.862 14.58v-.878l-1.593.576zM23.264 14.534l.531-.505 1.869 1.28-.115.377s-1.402-.588-1.447-.64c-.044-.05-.838-.512-.838-.512zM18.368 11.802l2.483 1.401.506-.365-.333-.39a3.155 3.155 0 0 0-.774-.64c-.186-.038-1.357-.563-1.357-.563l-.525.557zM22.496 10.906v-.87l-1.14-.372-.242.685.057.307zM14.925 10.278v-.87l1.325.14-.43.846zM14.976 13.222v-.902h1.517l-.371.806-.64.724z"/>
            <path fill="#F9CA06" d="M22.496 10.035c-.197 0-.394.018-.589.051-.262.032-.557.09-.883.154-.326.064-.64.16-1.018.262a8.16 8.16 0 0 0-1.004.384l2.56 1.485.46-.16c.64-.217 1.28-.403 1.856-.557a8.429 8.429 0 0 1 1.664-.275 6.035 6.035 0 0 1 1.53.103 4.915 4.915 0 0 1 1.466.576 2.88 2.88 0 0 1 1.107.972c.187.3.247.661.166 1.005-.11.377-.318.72-.601.992-.356.354-.75.666-1.178.928l1.638.941-.896.518-1.65-.953a13.83 13.83 0 0 1-2.452.928c-.887.243-1.792.413-2.707.505l-.845-1.548c.16 0 .397 0 .723-.052.327-.05.679-.102 1.075-.185.397-.083.82-.192 1.28-.32a9.414 9.414 0 0 0 1.28-.474l-2.56-1.472-.332.115-.352.11c-.58.195-1.17.36-1.767.492a7.814 7.814 0 0 1-1.51.205 4.98 4.98 0 0 1-1.331-.128 4.653 4.653 0 0 1-1.236-.493 3.2 3.2 0 0 1-1.068-.922 1.555 1.555 0 0 1-.288-.992 1.83 1.83 0 0 1 .422-.998 4.563 4.563 0 0 1 1.037-.947l-1.517-.877.896-.512 1.504.864c.704-.349 1.445-.62 2.208-.806a16.5 16.5 0 0 1 2.208-.404l.704 1.485zm-4.371 2.701c.339.19.727.272 1.113.237a6.97 6.97 0 0 0 1.536-.346l-2.412-1.389c-.884.576-.963 1.076-.237 1.498zm8.448.704a1.92 1.92 0 0 0-1.203-.218 9.478 9.478 0 0 0-1.684.372l2.394 1.382c1.024-.627 1.184-1.14.493-1.536z"/>
        </g>
        <g fill-rule="nonzero" transform="translate(67.84 246.4)">
            <ellipse cx="22.637" cy="18.835" fill="#DD990E" rx="22.374" ry="12.922"/>
            <path fill="#DD990E" d="M.269 19.034v-5.888l4.422 3.936zM45.018 13.3v5.535l-2.26 2.4-1.113-6.342z"/>
            <ellipse cx="22.637" cy="13.299" fill="#F9CB07" rx="22.374" ry="12.922"/>
            <path fill="#CC8B09" d="M38.63 13.696c-.224 2.176-1.779 4.32-4.659 5.99-6.259 3.61-16.403 3.61-22.656 0-2.886-1.67-4.435-3.84-4.659-5.99-.269-2.56 1.28-5.12 4.66-7.091 6.252-3.616 16.396-3.616 22.655 0 3.367 1.945 4.928 4.544 4.66 7.091z"/>
            <path fill="#E8A30A" d="M38.63 13.696c-.224 2.176-1.779 4.32-4.659 5.99-6.259 3.61-16.403 3.61-22.656 0-2.886-1.67-4.435-3.84-4.659-5.99.224-2.176 1.773-4.314 4.66-5.984 6.252-3.616 16.396-3.616 22.655 0 2.88 1.67 4.429 3.808 4.66 5.984z"/>
            <path fill="#CC8B09" d="M22.4 10.675a3.277 3.277 0 0 0-.589.045c-.262.038-.557.09-.883.16-.344.07-.683.157-1.018.262-.344.1-.68.226-1.004.378l2.56 1.485.46-.16c.64-.218 1.28-.403 1.85-.557a9.018 9.018 0 0 1 1.664-.275 6.086 6.086 0 0 1 1.536.109c.517.108 1.012.3 1.466.57.445.224.827.559 1.107.972.185.3.243.662.16 1.005-.109.378-.316.72-.602.992a6.4 6.4 0 0 1-1.171.928l1.632.94-.89.519-1.65-.954c-.787.39-1.61.701-2.458.928-.887.245-1.793.414-2.708.506l-.857-1.542a6.7 6.7 0 0 0 .717-.058c.363-.043.724-.105 1.081-.186a21.95 21.95 0 0 0 1.28-.32 9.491 9.491 0 0 0 1.28-.467l-2.56-1.478-.333.115-.352.109c-.64.211-1.235.377-1.772.499a8.243 8.243 0 0 1-1.504.198 5.26 5.26 0 0 1-1.332-.121 4.512 4.512 0 0 1-1.235-.5 3.155 3.155 0 0 1-1.075-.921 1.542 1.542 0 0 1-.288-.992c.04-.367.187-.714.422-.998.299-.366.65-.686 1.044-.948l-1.517-.87.89-.518 1.503.87c.704-.35 1.445-.624 2.208-.813a16.5 16.5 0 0 1 2.208-.403l.73 1.491zm-4.371 2.695c.337.194.726.277 1.113.236a7.328 7.328 0 0 0 1.53-.339l-2.406-1.395c-.877.582-.986 1.082-.23 1.498h-.007zm8.448.704a1.92 1.92 0 0 0-1.21-.218c-.568.076-1.13.2-1.677.371l2.394 1.383c1.024-.628 1.19-1.137.5-1.53l-.007-.006z"/>
            <path fill="#CC8B09" d="M21.024 16.986v-.87l.98.64-.43.64-.55-.41zM29.587 17.53v-.864l-2.125.16 1.223.838zM29.766 14.349v-.877l-1.593.576zM23.168 14.304l.531-.512 1.869 1.28-.115.384s-1.395-.589-1.44-.64l-.845-.512zM18.278 11.571l2.484 1.402.505-.365s-.313-.358-.333-.397c-.019-.038-.588-.608-.774-.64-.186-.032-1.363-.563-1.363-.563l-.519.563zM22.406 10.675v-.87l-1.139-.371-.243.678.058.314zM14.835 10.048v-.87l1.319.14-.423.845zM14.886 12.992v-.902h1.51l-.364.806-.64.723z"/>
            <path fill="#F9CA06" d="M22.4 9.805a4.02 4.02 0 0 0-.589.045c-.262.038-.557.09-.883.16-.326.07-.64.16-1.018.262-.343.105-.679.233-1.004.384l2.56 1.485.46-.167c.64-.217 1.28-.396 1.85-.55a8.506 8.506 0 0 1 1.664-.275c.514-.034 1.03 0 1.536.102a4.96 4.96 0 0 1 1.466.57c.453.224.841.56 1.126.979.185.303.243.666.16 1.011a2.189 2.189 0 0 1-.602.986 6.138 6.138 0 0 1-1.17.928l1.631.947-.89.512-1.65-.947c-.787.388-1.61.696-2.458.921-.887.247-1.792.419-2.707.512l-.858-1.548a6.7 6.7 0 0 0 .717-.058 8.96 8.96 0 0 0 1.081-.186 21.95 21.95 0 0 0 1.28-.32 8.672 8.672 0 0 0 1.28-.467l-2.56-1.478c-.108.044-.22.082-.332.115l-.352.109c-.64.211-1.236.377-1.773.499a8.282 8.282 0 0 1-1.504.205 5.254 5.254 0 0 1-1.331-.128 4.32 4.32 0 0 1-1.236-.5 3.078 3.078 0 0 1-1.075-.915 1.555 1.555 0 0 1-.288-.992c.038-.369.185-.719.423-1.004a4.73 4.73 0 0 1 1.043-.941l-1.517-.877.89-.518 1.504.87c.704-.35 1.444-.624 2.208-.813a15.488 15.488 0 0 1 2.208-.397l.71 1.479zm-4.371 2.694c.336.197.726.282 1.113.243a7.405 7.405 0 0 0 1.53-.345l-2.406-1.389c-.877.576-.986 1.075-.23 1.491h-.007zm8.448.704a1.965 1.965 0 0 0-1.21-.211 9.94 9.94 0 0 0-1.677.365l2.394 1.382c1.024-.618 1.19-1.13.5-1.536h-.007z"/>
        </g>
        <g fill-rule="nonzero" transform="translate(69.76 240)">
            <ellipse cx="22.624" cy="18.835" fill="#DD990E" rx="22.374" ry="12.922"/>
            <path fill="#DD990E" d="M.25 19.034v-5.888l4.422 3.936zM44.998 13.3v5.535l-2.259 2.4-1.107-6.336z"/>
            <ellipse cx="22.624" cy="13.299" fill="#F9CB07" rx="22.374" ry="12.922"/>
            <path fill="#CC8B09" d="M38.611 13.702c-.224 2.176-1.773 4.32-4.659 5.984-6.26 3.61-16.397 3.61-22.656 0-2.886-1.664-4.435-3.808-4.66-5.984-.268-2.56 1.28-5.152 4.66-7.09 6.26-3.617 16.397-3.617 22.656 0 3.373 1.938 4.928 4.543 4.66 7.09z"/>
            <path fill="#E8A30A" d="M38.611 13.702c-.224 2.176-1.773 4.32-4.659 5.984-6.26 3.61-16.397 3.61-22.656 0-2.886-1.664-4.435-3.808-4.66-5.984.225-2.176 1.774-4.32 4.66-5.984 6.26-3.616 16.397-3.616 22.656 0 2.886 1.664 4.448 3.802 4.66 5.984z"/>
            <path fill="#CC8B09" d="M22.4 10.675a3.277 3.277 0 0 0-.589.045c-.262.038-.557.09-.883.16-.326.07-.64.16-1.018.262-.344.103-.68.232-1.004.384l2.56 1.485.46-.166c.64-.218 1.28-.397 1.85-.55a8.57 8.57 0 0 1 1.67-.276 5.76 5.76 0 0 1 1.53.103c.516.11 1.01.302 1.466.57.445.224.827.559 1.107.972.187.3.247.661.166 1.005-.11.378-.317.72-.601.992a6.189 6.189 0 0 1-1.178.928l1.638.947-.896.512-1.65-.947c-.786.387-1.607.695-2.452.921-.887.246-1.792.417-2.707.512l-.864-1.548a6.79 6.79 0 0 0 .723-.058c.362-.04.72-.102 1.075-.186.397-.083.82-.192 1.28-.32a8.589 8.589 0 0 0 1.28-.467l-2.56-1.478c-.108.045-.22.083-.333.115l-.352.109c-.64.213-1.228.38-1.766.499a8.422 8.422 0 0 1-1.51.205 5.254 5.254 0 0 1-1.332-.128 4.48 4.48 0 0 1-1.235-.5 3.11 3.11 0 0 1-1.069-.915 1.555 1.555 0 0 1-.288-.992c.033-.37.18-.722.423-1.004a4.544 4.544 0 0 1 1.037-.941l-1.517-.877.896-.518 1.497.87a10.797 10.797 0 0 1 2.215-.813 15.488 15.488 0 0 1 2.208-.397l.723 1.485zm-4.371 2.695c.336.195.726.28 1.113.243a7.36 7.36 0 0 0 1.536-.346l-2.412-1.389c-.892.576-.975 1.073-.25 1.492h.013zm8.448.704a1.952 1.952 0 0 0-1.203-.212 9.99 9.99 0 0 0-1.684.365l2.394 1.383c1.011-.621 1.171-1.133.48-1.53l.013-.006z"/>
            <path fill="#CC8B09" d="M21.005 16.986v-.87l.985.64-.428.64-.557-.41zM29.574 17.536v-.87l-2.13.166 1.222.832zM29.754 14.349v-.877l-1.594.576zM23.155 14.304l.525-.506 1.869 1.28-.115.378s-1.396-.589-1.44-.64c-.045-.051-.839-.512-.839-.512zM18.26 11.571l2.482 1.408.506-.371-.333-.39a3.155 3.155 0 0 0-.774-.64c-.186-.032-1.363-.564-1.363-.564l-.519.557zM22.387 10.675v-.87l-1.139-.365-.243.678.057.314zM14.816 10.048v-.87l1.325.14-.429.845zM14.867 12.992v-.902h1.517l-.371.806-.64.723z"/>
            <path fill="#F9CA06" d="M22.4 9.805a3.43 3.43 0 0 0-.589.051c-.262.038-.557.09-.883.16-.326.07-.64.154-1.018.256a8.16 8.16 0 0 0-1.004.384l2.56 1.485.46-.16c.64-.218 1.28-.403 1.85-.557a9.082 9.082 0 0 1 1.67-.275 6.035 6.035 0 0 1 1.53.102 4.915 4.915 0 0 1 1.466.576c.445.225.827.56 1.107.973.187.3.247.661.166 1.005-.11.377-.318.719-.601.992-.356.354-.75.665-1.178.928l1.638.94-.896.519-1.65-.954a13.83 13.83 0 0 1-2.452.928c-.887.244-1.792.413-2.707.506l-.864-1.549c.242 0 .483-.017.723-.051.32-.038.678-.102 1.075-.186.397-.083.82-.192 1.28-.32a9.414 9.414 0 0 0 1.28-.473l-2.56-1.472-.333.115-.352.109c-.58.195-1.169.36-1.766.493a7.878 7.878 0 0 1-1.51.204 5.26 5.26 0 0 1-1.332-.121 4.909 4.909 0 0 1-1.235-.5 3.2 3.2 0 0 1-1.069-.921 1.542 1.542 0 0 1-.288-.992c.034-.369.182-.717.423-.998a4.563 4.563 0 0 1 1.037-.948l-1.517-.876.896-.512 1.497.864c.708-.347 1.45-.617 2.215-.807a16.5 16.5 0 0 1 2.208-.403l.723 1.485zm-4.371 2.7c.337.194.727.277 1.113.237a7.29 7.29 0 0 0 1.536-.339l-2.412-1.395c-.896.582-.986 1.075-.25 1.498h.013zm8.448.705a1.92 1.92 0 0 0-1.203-.218 9.478 9.478 0 0 0-1.684.371l2.394 1.383c1.011-.628 1.171-1.14.48-1.536h.013z"/>
        </g>
        <g fill-rule="nonzero" transform="translate(68.48 233.6)">
            <ellipse cx="22.528" cy="18.605" fill="#DD990E" rx="22.374" ry="12.922"/>
            <path fill="#DD990E" d="M.16 18.803v-5.888l4.422 3.936zM44.909 13.069v5.536l-2.266 2.4-1.107-6.336z"/>
            <ellipse cx="22.528" cy="13.069" fill="#F9CB07" rx="22.374" ry="12.922"/>
            <path fill="#CC8B09" d="M38.522 13.472c-.23 2.176-1.78 4.314-4.666 5.984-6.253 3.61-16.397 3.61-22.656 0-2.88-1.67-4.429-3.808-4.653-5.984-.269-2.56 1.28-5.152 4.653-7.098 6.26-3.616 16.403-3.616 22.656 0 3.373 1.946 4.928 4.55 4.666 7.098z"/>
            <path fill="#E8A30A" d="M38.522 13.472c-.23 2.176-1.78 4.314-4.666 5.984-6.253 3.61-16.397 3.61-22.656 0-2.88-1.67-4.429-3.808-4.653-5.984.224-2.176 1.773-4.32 4.653-5.99 6.26-3.616 16.403-3.616 22.656 0 2.886 1.67 4.435 3.814 4.666 5.99z"/>
            <path fill="#CC8B09" d="M22.298 10.445a3.277 3.277 0 0 0-.59.045 13.334 13.334 0 0 0-1.906.422c-.343.1-.676.226-.999.378l2.56 1.49.461-.166c.64-.217 1.28-.403 1.85-.556a8.48 8.48 0 0 1 1.664-.27c.514-.033 1.03.001 1.536.103.516.108 1.011.3 1.465.57.443.229.822.566 1.101.979.186.3.243.662.16 1.005-.109.378-.316.72-.602.992-.355.354-.75.665-1.177.928l1.638.947-.89.512-1.65-.954c-.787.39-1.61.701-2.458.928-.886.248-1.792.417-2.707.506l-.858-1.542a6.7 6.7 0 0 0 .717-.058c.363-.043.724-.105 1.081-.186a21.95 21.95 0 0 0 1.28-.32c.438-.123.866-.28 1.28-.467l-2.56-1.478-.332.115-.352.109c-.64.211-1.236.377-1.773.499a8.237 8.237 0 0 1-1.51.198 5.318 5.318 0 0 1-1.332-.121 4.358 4.358 0 0 1-1.229-.5 3.155 3.155 0 0 1-1.075-.921 1.542 1.542 0 0 1-.288-.992c.04-.367.187-.714.423-.998.297-.366.649-.683 1.043-.941l-1.549-.883.89-.519 1.504.87c.704-.35 1.444-.623 2.208-.812a16.5 16.5 0 0 1 2.208-.403l.768 1.49zm-4.378 2.694c.34.195.731.278 1.12.237a7.328 7.328 0 0 0 1.53-.34l-2.407-1.394c-.883.584-.964 1.083-.243 1.497zm8.448.704a1.92 1.92 0 0 0-1.203-.217c-.569.075-1.13.2-1.677.37l2.394 1.383c.998-.62 1.184-1.139.486-1.536z"/>
            <path fill="#CC8B09" d="M20.915 16.755v-.87l.98.64-.43.64-.55-.41zM29.478 17.306v-.87l-2.124.166 1.222.832zM29.658 14.118v-.876l-1.594.576zM23.04 14.08l.531-.512 1.869 1.28-.115.384s-1.395-.589-1.44-.64l-.845-.512zM18.17 11.34l2.476 1.402.512-.364-.339-.39a2.995 2.995 0 0 0-.768-.64c-.185-.04-1.363-.564-1.363-.564l-.518.557zM22.298 10.445v-.87l-1.14-.372-.243.679.058.313zM14.726 9.818v-.87l1.319.14-.423.845zM14.771 12.762v-.903h1.51l-.37.807-.64.723-.5-.627z"/>
            <path fill="#F9CA06" d="M22.298 9.6a4.02 4.02 0 0 0-.59.045c-.262.038-.556.09-.882.16-.327.07-.64.16-1.024.262a7.68 7.68 0 0 0-.999.384l2.56 1.485.461-.166c.64-.212 1.28-.397 1.85-.55a8.506 8.506 0 0 1 1.664-.276c.514-.034 1.03 0 1.536.102a5.12 5.12 0 0 1 1.465.57c.445.229.826.565 1.107.98.186.3.244.661.16 1.004-.108.378-.316.72-.601.992a6.17 6.17 0 0 1-1.178.922l1.639.947-.89.518L26.938 16c-.788.387-1.611.698-2.458.928-.887.242-1.793.41-2.707.506l-.858-1.55a6.7 6.7 0 0 0 .717-.057c.363-.04.725-.1 1.082-.179.396-.09.812-.198 1.28-.326a8.32 8.32 0 0 0 1.28-.468l-2.56-1.478-.333.122-.352.102c-.64.211-1.235.378-1.773.5a8.269 8.269 0 0 1-1.51.204 5.312 5.312 0 0 1-1.332-.128 4.358 4.358 0 0 1-1.228-.5 3.078 3.078 0 0 1-1.076-.914 1.555 1.555 0 0 1-.288-.992c.039-.368.186-.715.423-.999a4.589 4.589 0 0 1 1.043-.947L14.72 8.96l.89-.512 1.504.864a11.13 11.13 0 0 1 2.208-.813 16.442 16.442 0 0 1 2.208-.397l.768 1.498zm-4.378 2.669c.339.196.73.281 1.12.243a7.04 7.04 0 0 0 1.53-.346l-2.407-1.388c-.883.576-.964 1.073-.243 1.49zm8.448.704a1.92 1.92 0 0 0-1.203-.211 9.94 9.94 0 0 0-1.677.364l2.394 1.383c.998-.621 1.184-1.133.486-1.536z"/>
        </g>
        <g fill-rule="nonzero" transform="translate(0 284.8)">
            <ellipse cx="22.374" cy="22.278" fill="#D6D8E5" opacity=".3" rx="22.374" ry="12.922"/>
            <ellipse cx="27.91" cy="18.957" fill="#DD990E" rx="22.374" ry="12.922"/>
            <path fill="#DD990E" d="M5.542 19.155v-5.888l4.423 3.936zM50.291 13.42v5.537l-2.259 2.4-1.107-6.336z"/>
            <ellipse cx="27.91" cy="13.421" fill="#F9CB07" rx="22.374" ry="12.922"/>
            <path fill="#CC8B09" d="M43.904 13.824c-.224 2.176-1.78 4.32-4.66 5.984-6.258 3.61-16.402 3.61-22.655 0-2.887-1.664-4.435-3.808-4.66-5.984-.268-2.56 1.28-5.152 4.66-7.091 6.253-3.616 16.397-3.616 22.656 0 3.373 1.939 4.915 4.544 4.659 7.091z"/>
            <path fill="#E8A30A" d="M43.904 13.824c-.224 2.176-1.78 4.32-4.66 5.984-6.258 3.61-16.402 3.61-22.655 0-2.887-1.664-4.435-3.808-4.66-5.984.225-2.176 1.773-4.32 4.66-5.984 6.253-3.616 16.397-3.616 22.656 0 2.88 1.664 4.435 3.808 4.659 5.984z"/>
            <path fill="#CC8B09" d="M27.68 10.797a3.277 3.277 0 0 0-.589.045 13.334 13.334 0 0 0-1.9.422 6.95 6.95 0 0 0-1.005.384l2.56 1.485.46-.167c.64-.217 1.28-.403 1.85-.55a8.57 8.57 0 0 1 1.664-.256 5.76 5.76 0 0 1 1.53.102c.516.11 1.01.302 1.465.57.446.225.827.56 1.107.973.188.3.247.66.167 1.005a2.246 2.246 0 0 1-.64.992 5.94 5.94 0 0 1-1.171.928l1.632.947-.89.512-1.6-.973c-.783.392-1.605.703-2.451.928-.886.247-1.792.416-2.707.506l-.864-1.543a6.79 6.79 0 0 0 .723-.057c.361-.044.72-.106 1.075-.186.397-.083.82-.192 1.28-.32a8.672 8.672 0 0 0 1.28-.467l-2.56-1.479c-.109.039-.218.084-.333.116l-.352.108c-.64.212-1.235.378-1.766.5a7.84 7.84 0 0 1-1.51.198 4.986 4.986 0 0 1-1.332-.122 4.397 4.397 0 0 1-1.235-.499c-.428-.217-.8-.53-1.088-.915a1.523 1.523 0 0 1-.294-.992c.038-.37.185-.72.422-1.005.297-.365.65-.683 1.043-.94l-1.517-.877.896-.519 1.498.87c.704-.35 1.444-.623 2.208-.812a15.571 15.571 0 0 1 2.214-.397l.73 1.485zm-4.371 2.694a1.85 1.85 0 0 0 1.113.243 7.75 7.75 0 0 0 1.53-.345L23.546 12c-.884.576-.963 1.073-.237 1.491zm8.448.704a1.952 1.952 0 0 0-1.203-.211 9.99 9.99 0 0 0-1.684.365l2.394 1.382c1.024-.62 1.184-1.133.493-1.536z"/>
            <path fill="#CC8B09" d="M26.298 17.107v-.87l.979.64-.423.64-.556-.41zM34.86 17.658v-.87l-2.124.166 1.222.832zM35.046 14.47v-.876l-1.593.576zM28.442 14.426l.53-.506 1.87 1.28-.116.378s-1.395-.59-1.44-.64c-.044-.052-.844-.512-.844-.512zM23.552 11.693l2.483 1.408.506-.371s-.314-.359-.333-.39a3.155 3.155 0 0 0-.774-.64c-.186-.04-1.364-.564-1.364-.564l-.518.557zM27.68 10.797v-.87l-1.14-.372-.242.685.057.307zM20.109 10.17V9.3l1.325.14-.43.845zM20.16 13.114v-.903h1.51l-.364.807-.64.723z"/>
            <path fill="#F9CA06" d="M27.68 9.926a3.43 3.43 0 0 0-.589.052c-.26.038-.554.09-.883.153-.326.07-.64.16-1.018.263-.343.104-.679.233-1.004.384l2.56 1.484.46-.16c.64-.217 1.28-.403 1.85-.556a9.082 9.082 0 0 1 1.67-.276 6.054 6.054 0 0 1 1.53.103 4.915 4.915 0 0 1 1.466.576c.445.224.827.56 1.107.973.187.299.247.66.166 1.004a2.285 2.285 0 0 1-.64.992 6.182 6.182 0 0 1-1.171.928l1.632.941-.89.519-1.65-.954a13.83 13.83 0 0 1-2.407.928c-.887.244-1.792.413-2.707.506l-.864-1.55a6.4 6.4 0 0 0 .723-.05c.32-.039.678-.103 1.075-.186.397-.083.82-.192 1.28-.32a9.504 9.504 0 0 0 1.28-.474l-2.56-1.472-.333.116-.352.108c-.58.195-1.17.36-1.766.493a7.878 7.878 0 0 1-1.51.205 4.98 4.98 0 0 1-1.332-.128 4.57 4.57 0 0 1-1.235-.493 3.13 3.13 0 0 1-1.088-.921 1.523 1.523 0 0 1-.294-.992c.04-.367.186-.715.422-.999.299-.366.65-.685 1.043-.947l-1.517-.877.896-.512 1.498.864a11.11 11.11 0 0 1 2.208-.806c.728-.185 1.468-.32 2.214-.403l.73 1.484zm-4.371 2.701c.337.195.727.278 1.113.237a6.931 6.931 0 0 0 1.53-.346l-2.406-1.388c-.884.576-.963 1.075-.237 1.497zm8.448.704a1.92 1.92 0 0 0-1.203-.217 9.478 9.478 0 0 0-1.684.37l2.394 1.383c1.024-.627 1.184-1.139.493-1.536z"/>
        </g>
        <g fill-rule="nonzero" transform="translate(7.04 278.4)">
            <ellipse cx="22.701" cy="18.47" fill="#DD990E" rx="22.374" ry="12.922"/>
            <path fill="#DD990E" d="M.333 18.669V12.78l4.422 3.936zM45.082 12.934v5.536l-2.266 2.4-1.107-6.342z"/>
            <ellipse cx="22.701" cy="12.934" fill="#F9CB07" rx="22.374" ry="12.922"/>
            <path fill="#CC8B09" d="M38.694 13.331c-.23 2.176-1.779 4.32-4.665 5.99-6.253 3.61-16.397 3.61-22.656 0-2.88-1.67-4.429-3.84-4.653-5.99-.269-2.56 1.28-5.12 4.653-7.091 6.259-3.616 16.403-3.616 22.656 0 3.373 1.946 4.928 4.544 4.665 7.091z"/>
            <path fill="#E8A30A" d="M38.694 13.331c-.23 2.176-1.779 4.32-4.665 5.99-6.253 3.61-16.397 3.61-22.656 0-2.88-1.67-4.429-3.84-4.653-5.99.224-2.176 1.773-4.313 4.653-5.984 6.259-3.616 16.403-3.616 22.656 0 2.886 1.67 4.435 3.808 4.665 5.984z"/>
            <path fill="#CC8B09" d="M22.47 10.304a4.25 4.25 0 0 0-.588.051c-.263.039-.557.09-.884.16-.345.07-.687.157-1.024.263-.342.1-.676.226-.998.377l2.56 1.485.46-.16c.64-.218 1.28-.403 1.85-.557a9.018 9.018 0 0 1 1.664-.275 5.805 5.805 0 0 1 1.536.109c.515.107 1.009.3 1.46.57.447.224.83.559 1.113.972.186.3.243.662.16 1.005-.108.378-.316.72-.601.992-.356.354-.75.665-1.178.928l1.638.94-.89.52-1.65-.954a13.9 13.9 0 0 1-2.458.928c-.886.244-1.792.413-2.707.505l-.813-1.523a6.7 6.7 0 0 0 .717-.058 12.42 12.42 0 0 0 1.081-.185 21.95 21.95 0 0 0 1.28-.32c.438-.124.866-.28 1.28-.467l-2.56-1.479-.339.115-.345.11c-.64.21-1.236.377-1.773.498a8.237 8.237 0 0 1-1.51.199 5.318 5.318 0 0 1-1.332-.122 4.774 4.774 0 0 1-1.229-.499 3.155 3.155 0 0 1-1.075-.922 1.542 1.542 0 0 1-.288-.992c.014-.357.13-.704.333-.998.299-.366.65-.685 1.043-.947l-1.517-.877.89-.512 1.504.845a11.11 11.11 0 0 1 2.208-.807 16.5 16.5 0 0 1 2.208-.403l.774 1.485zm-4.377 2.7c.339.195.73.278 1.12.238a7.328 7.328 0 0 0 1.53-.34l-2.407-1.382c-.883.57-.966 1.062-.243 1.485zm8.448.705a1.92 1.92 0 0 0-1.203-.218c-.57.073-1.13.197-1.677.371l2.393 1.383c1.018-.627 1.184-1.165.487-1.536z"/>
            <path fill="#CC8B09" d="M21.12 16.64v-.87l.98.64-.43.64-.55-.41zM29.651 17.165V16.3l-2.125.16 1.223.832zM29.83 13.984v-.877l-1.593.576zM23.232 13.94l.531-.513 1.869 1.28-.115.384s-1.395-.589-1.44-.64l-.845-.512zM18.342 11.2l2.477 1.408.512-.365s-.313-.358-.339-.397a3.411 3.411 0 0 0-.768-.64c-.186-.032-1.363-.556-1.363-.556l-.519.55zM22.47 10.304V9.44l-1.139-.371-.243.678.058.314zM14.9 9.683v-.87l1.318.14-.423.845zM14.944 12.627v-.902h1.51l-.37.806-.64.723-.5-.627z"/>
            <path fill="#F9CA06" d="M22.47 9.44a3.277 3.277 0 0 0-.588.045c-.263.038-.557.09-.884.16-.326.07-.672.153-1.024.262-.342.102-.676.23-.998.384l2.56 1.485.46-.166c.64-.218 1.28-.397 1.85-.55a8.506 8.506 0 0 1 1.664-.276c.515-.034 1.031 0 1.536.102.514.11 1.007.302 1.46.57.447.225.83.56 1.113.973.185.3.243.662.16 1.005a2.176 2.176 0 0 1-.601.992c-.35.357-.74.67-1.165.934l1.638.947-.89.512-1.65-.953c-.786.391-1.61.702-2.458.928-.887.246-1.792.418-2.707.512l-.826-1.556a6.7 6.7 0 0 0 .717-.057c.363-.043.724-.105 1.081-.186a21.95 21.95 0 0 0 1.28-.32 8.32 8.32 0 0 0 1.28-.467l-2.56-1.478c-.108.038-.224.083-.339.115l-.345.109c-.64.21-1.236.377-1.773.499a8.269 8.269 0 0 1-1.51.205 5.312 5.312 0 0 1-1.332-.128 4.358 4.358 0 0 1-1.229-.5 3.149 3.149 0 0 1-1.075-.915 1.555 1.555 0 0 1-.288-.992c.038-.37.185-.719.423-1.005a4.73 4.73 0 0 1 1.043-.94l-1.517-.877.89-.519 1.414.87c.704-.35 1.444-.623 2.208-.812a15.488 15.488 0 0 1 2.208-.397l.774 1.485zm-4.377 2.72c.338.196.73.281 1.12.243a7.853 7.853 0 0 0 1.53-.345l-2.407-1.39c-.883.568-.964 1.065-.243 1.492zm8.448.704a1.92 1.92 0 0 0-1.203-.211 9.94 9.94 0 0 0-1.677.365l2.393 1.382c1.018-.646 1.184-1.158.487-1.562v.026z"/>
        </g>
        <g fill-rule="nonzero" transform="translate(116.48 284.8)">
            <ellipse cx="22.701" cy="22.278" fill="#D6D8E5" opacity=".3" rx="22.374" ry="12.922"/>
            <ellipse cx="28.237" cy="18.957" fill="#DD990E" rx="22.374" ry="12.922"/>
            <path fill="#DD990E" d="M5.869 19.155v-5.888l4.422 3.936zM50.618 13.42v5.537l-2.26 2.4-1.107-6.336z"/>
            <ellipse cx="28.237" cy="13.421" fill="#F9CB07" rx="22.374" ry="12.922"/>
            <path fill="#CC8B09" d="M44.23 13.824c-.224 2.176-1.779 4.32-4.659 5.984-6.259 3.61-16.403 3.61-22.656 0-2.886-1.664-4.435-3.808-4.659-5.984-.269-2.56 1.28-5.152 4.66-7.091 6.252-3.616 16.396-3.616 22.655 0 3.373 1.939 4.928 4.544 4.66 7.091z"/>
            <path fill="#E8A30A" d="M44.23 13.824c-.224 2.176-1.779 4.32-4.659 5.984-6.259 3.61-16.403 3.61-22.656 0-2.886-1.664-4.435-3.808-4.659-5.984.224-2.176 1.773-4.32 4.66-5.984 6.252-3.616 16.396-3.616 22.655 0 2.88 1.664 4.435 3.808 4.66 5.984z"/>
            <path fill="#CC8B09" d="M28.006 10.797a3.277 3.277 0 0 0-.588.045 13.334 13.334 0 0 0-1.901.422 6.95 6.95 0 0 0-1.005.384l2.56 1.485.46-.167c.64-.217 1.28-.403 1.85-.55a8.57 8.57 0 0 1 1.67-.275 5.76 5.76 0 0 1 1.53.102c.516.11 1.011.302 1.466.57.446.224.827.56 1.107.973.19.298.248.662.16 1.004a2.176 2.176 0 0 1-.601.992 5.94 5.94 0 0 1-1.172.928l1.632.948-.89.512-1.644-.954c-.783.392-1.605.703-2.451.928-.886.247-1.792.416-2.707.506l-.864-1.543a6.79 6.79 0 0 0 .723-.057c.361-.044.72-.106 1.075-.186a21.95 21.95 0 0 0 1.28-.32 8.672 8.672 0 0 0 1.28-.467l-2.56-1.479c-.109.039-.218.084-.333.116l-.352.108c-.64.212-1.235.378-1.766.5a7.84 7.84 0 0 1-1.51.198 4.986 4.986 0 0 1-1.332-.122 4.397 4.397 0 0 1-1.235-.499 3.117 3.117 0 0 1-1.069-.915 1.523 1.523 0 0 1-.294-.992c.038-.37.185-.72.422-1.005.297-.365.65-.683 1.043-.94l-1.516-.877.896-.519 1.497.87c.704-.35 1.445-.623 2.208-.812a15.648 15.648 0 0 1 2.208-.397l.723 1.485zm-4.37 2.694a1.85 1.85 0 0 0 1.113.243 7.75 7.75 0 0 0 1.53-.345L23.871 12c-.883.576-.962 1.073-.237 1.491zm8.447.704a1.965 1.965 0 0 0-1.21-.211c-.568.074-1.129.196-1.676.365l2.393 1.382c1.05-.62 1.184-1.133.493-1.536z"/>
            <path fill="#CC8B09" d="M26.624 17.107v-.87l.98.64-.423.64-.557-.41zM35.187 17.658v-.87l-2.125.166 1.223.832zM35.366 14.47v-.876l-1.587.576zM28.8 14.426l.531-.506L31.2 15.2l-.115.378s-1.395-.59-1.44-.64c-.045-.052-.845-.512-.845-.512zM23.878 11.693l2.484 1.408.505-.371s-.313-.359-.333-.39a3.155 3.155 0 0 0-.774-.64c-.186-.04-1.363-.564-1.363-.564l-.519.557zM28.006 10.797v-.87l-1.139-.372-.243.685.058.307zM20.435 10.17V9.3l1.325.14-.429.845zM20.48 13.114v-.903h1.51l-.364.807-.64.723z"/>
            <path fill="#F9CA06" d="M28.006 9.926a3.43 3.43 0 0 0-.588.052c-.26.038-.555.09-.884.153-.326.07-.64.16-1.017.263-.344.104-.68.233-1.005.384l2.56 1.484.46-.16c.64-.217 1.28-.403 1.85-.556a9.082 9.082 0 0 1 1.67-.276 6.054 6.054 0 0 1 1.53.103 4.915 4.915 0 0 1 1.466.576c.446.224.827.56 1.107.973.19.298.248.662.16 1.004-.108.379-.316.721-.601.992a6.182 6.182 0 0 1-1.172.928l1.632.941-.89.519-1.644-.954a13.83 13.83 0 0 1-2.451.928c-.887.244-1.792.413-2.707.506l-.864-1.55a6.4 6.4 0 0 0 .723-.05c.32-.039.678-.103 1.075-.186a21.95 21.95 0 0 0 1.28-.32 9.504 9.504 0 0 0 1.28-.474l-2.56-1.472-.333.116-.352.108c-.58.195-1.17.36-1.766.493a7.878 7.878 0 0 1-1.51.205 4.98 4.98 0 0 1-1.332-.128 4.57 4.57 0 0 1-1.235-.493 3.13 3.13 0 0 1-1.069-.921 1.523 1.523 0 0 1-.294-.992c.04-.367.187-.715.422-.999.299-.366.65-.685 1.043-.947l-1.516-.877.896-.512 1.497.864a11.11 11.11 0 0 1 2.208-.806 16.685 16.685 0 0 1 2.208-.403l.723 1.484zm-4.37 2.701c.336.195.726.278 1.113.237a6.931 6.931 0 0 0 1.53-.346l-2.407-1.388c-.883.576-.962 1.075-.237 1.497zm8.447.704a1.92 1.92 0 0 0-1.21-.217 9.549 9.549 0 0 0-1.676.37l2.393 1.383c1.05-.627 1.184-1.139.493-1.536z"/>
        </g>
        <ellipse cx="259.142" cy="300.25" fill="#D6D8E5" fill-rule="nonzero" opacity=".4" rx="27.91" ry="16.115"/>
        <g fill-rule="nonzero">
            <path fill="#3A2C6D" d="M257.862 132.634c1.248-2.004 10.778-3.322 13.914 4.755 1.19 3.059 1.005 10.88 1.997 15.801.992 4.922 3.34 7.68 4.179 11.693.838 4.013-.531 10.682-10.144 11.86-9.613 1.177-17.005-2.196-19.277-5.261-2.272-3.066-2.317-9.6.045-13.076 2.362-3.475 4.147-6.342 4.09-10.88l5.196-14.892z"/>
            <path fill="#FFCEA9" d="M246.445 166.4s-2.26 15.936 2.01 27.264c4.268 11.328 3.084-2.918 3.084-2.918l-1.024-3.386s-.857-13.03-.505-16.224c.352-3.194.268-5.94.505-6.195.237-.256-.851-.762-1.28-.826-.429-.064-2.79 2.285-2.79 2.285z"/>
            <path fill="#3A2C6D" d="M264.154 131.238s-7.175-2.067-11.52 1.812c-3.975 3.545-3.642 8.37-3.066 10.636.576 2.266 1.74 5.357 3.54 5.53 1.798.173 11.046-17.978 11.046-17.978z"/>
            <path fill="#FFCEA9" d="M266.88 150.81s-.474 8-.326 8.588c.147.59 3.142 1.152 3.98 1.85.839.698-4.352 8.813-6.988 10.016-2.637 1.203-10.81-1.869-11.373-5.933-.525-3.744 2.336-6.65 3.437-7.68a18.074 18.074 0 0 1 2.252-.057l.244-3.879c3.596-1.12 8.774-2.905 8.774-2.905z"/>
            <path fill="#F4F4F4" d="M267.994 160.173c2.246.345 4.819 1.549 5.17 2.777.41 1.434 1.28 8.199-.64 13.35-1.92 5.153-3.257 8.423-4.37 10.638 0 0-9.722 4.172-17.562-.692 0 0-.538-5.516-.576-8.467-7.232-6.31-1.05-14.08 5.082-20.14a12.749 12.749 0 0 1 2.208-.033s-5.472 6.47-1.67 10.144c8.134-2.464 9.753-6.118 12.358-7.577z"/>
            <path fill="#FFCEA9" d="M251.955 140.902c.807-5.12 4.519-9.024 9.818-8.71a10.182 10.182 0 0 1 5.12 18.618 10.106 10.106 0 0 1-.82 2.246c-1.881 2.189-6.86 3.571-8.505 3.597-1.427 0-2.65-1.312-3.987-3.52-2.765-4.602-2.061-9.696-1.626-12.23z"/>
            <path fill="#3A2C6D" d="M263.418 132.288c3.718.723 6.77 1.773 7.782 5.42.691 2.516 1.594 7.303.736 9.326l-.538 1.459-4.48 2.317s-2.099-1.748-1.446-6.88a3.648 3.648 0 0 0-.64-1.92 5.523 5.523 0 0 1-.64-1.55 5.76 5.76 0 0 0-2.918-3.154c-3.348-1.882-8.256-.256-8.96.422 2.284-4.672 6.777-6.285 11.104-5.44z"/>
            <path fill="#38226D" d="M270.17 294.266c-1.882 1.53-4.807.473-4.948.608-1.92 1.92-4.768 3.59-6.892 5.267-1.172.921-2.996 2.157-2.67 3.93.596 3.167 5.671 2.195 7.585 1.222 1.913-.973 3.475-2.56 5.286-3.7 1.28-.806 2.56-1.222 2.765-2.854.122-.985-.794-4.512-1.126-4.473z"/>
            <path fill="#9C73FF" d="M271.27 298.086c-.25 1.562-1.504 1.99-2.784 2.784-1.843 1.146-3.462 2.797-5.376 3.764-1.766.896-6.182 1.785-7.424-.474.679 3.053 5.664 2.093 7.559 1.133 1.894-.96 3.475-2.56 5.286-3.7 1.28-.806 2.56-1.222 2.765-2.854a3.002 3.002 0 0 0-.026-.653z"/>
            <path fill="#38226D" d="M256.973 291.629c-1.722 1.401-4.32.64-4.448.742-1.754 1.76-4.352 3.27-6.298 4.8-1.075.845-2.752 1.978-2.451 3.597.544 2.906 5.19 2.01 6.944 1.126 1.754-.883 3.2-2.361 4.845-3.392 1.184-.736 2.349-1.12 2.56-2.61.083-.903-.845-4.302-1.152-4.263z"/>
            <path fill="#9C73FF" d="M258.074 295.29c-.224 1.427-1.376 1.824-2.56 2.56-1.69 1.05-3.2 2.56-4.928 3.443-1.62.825-5.658 1.638-6.797-.435.64 2.796 5.184 1.92 6.918 1.043 1.735-.877 3.2-2.362 4.845-3.392 1.184-.736 2.349-1.12 2.56-2.611a2.56 2.56 0 0 0-.038-.608z"/>
            <path fill="#FFCEA9" d="M246.835 204.122c.826-6.484 3.2-15.904 3.2-15.904a19.104 19.104 0 0 0 7.245 1.785c4.186.211 10.88-1.056 10.88-1.056a66.842 66.842 0 0 0 3.84 5.933c1.869 2.592 5.504 8.282 4.627 18.22-.576 6.497-4.211 34.074-4.211 34.074a51.565 51.565 0 0 1 2.234 14.304c-.039 4.013-1.095 10.83-2.279 17.133l-2.17 15.655s-2.886 2.086-4.947.608l.263-15.316c-.256-3.75-.64-9.28-.864-12.8-.39-5.76-1.421-14.886-1.715-17.17-.295-2.286-1.03-6.266-1.376-10.734a22304.06 22304.06 0 0 1-2.036-27.168l-.23 4.25s-.224 6.906-1.216 15.418-1.338 12.294-1.338 12.294 1.722 3.168 1.92 5.498c.173 1.843 2.279 16.403 1.024 23.808l-2.56 18.828a4.947 4.947 0 0 1-4.48.59l-1.516-18.977c-1.018-7.225-3.2-22.534-3.508-24.525-.435-2.617-.793-3.91-1.28-12.16-.486-8.25-.339-26.105.493-32.588z"/>
            <path fill="#EA1F49" d="M268.16 186.938l5.58 11.219s8.526 12.473-.306 44.544l1.657 9.894s-16.717 10.727-27.904 0c0 0-3.878-29.638-1.817-43.302a157.44 157.44 0 0 1 5.21-23.22s2.738 3.028 16.838 1.031"/>
            <path fill="#FFCEA9" d="M233.178 194.906c1.28.243 2.502-.032 4.294.454 1.34.424 2.736.64 4.14.64 1.524 0 5.8-2.131 9.466-4.704 4.32-3.027 8.608-8.256 10.157-10.771 3.335-5.427 6.528-11.027 7.514-13.895 1.177-3.443 1.152-1.1 3.2-1.152 2.387-.057 3.673.82 1.881 5.492s-3.424 7.923-7.417 13.44a44.218 44.218 0 0 1-10.682 10.662 55.494 55.494 0 0 1-11.725 6.266c-1.196.492-1.958 1.152-4.128 2.355a15.36 15.36 0 0 1-7.04 2.022c-2.073-.051-2.816-.397-2.988-.819-.218-.531.185-.896 1.132-.986a12.525 12.525 0 0 0 4.423-.876s-2.067.294-3.315.358a12.557 12.557 0 0 1-3.322-.262c-1.05-.25-1.638-1.735-.685-1.85.954-.115 1.722.064 3.578-.058a12.41 12.41 0 0 0 2.893-.53c-1.24.01-2.48-.08-3.706-.27a5.203 5.203 0 0 1-2.733-1.094c-.403-.333-.473-1.28.73-1.28 1.081 0 2.438.5 4.48.218 1.504-.212 2.56-.564 2.304-.762-.256-.198-1.107 0-2.349-.454-1.242-.455-2.112-1.543-1.824-2.196.288-.652.429-.185 1.722.052z"/>
            <path fill="#EDEDED" d="M272.723 175.398s-5.472.288-8.582-3.142l3.373-7.04s1.555-3.898 5.203-2.938c3.648.96 3.705 6.093.006 13.12zM255.091 157.638s-4.441-1.356-9.158 8.48l1.766 1.063s4.64-7.021 7.392-9.543z"/>
        </g>
        <path fill="#D6D8E5" fill-rule="nonzero" d="M124.864 216.96L52.16 174.989a4.083 4.083 0 0 1 0-7.072 4.083 4.083 0 0 1 4.083 0l72.704 42.003a4.083 4.083 0 0 1-.467 7.302 4.07 4.07 0 0 1-3.616-.262z" opacity=".4"/>
        <path fill="#B81839" fill-rule="nonzero" d="M93.472 191.571c-26.022-15.02-47.187-51.686-47.187-81.728 0-30.041 21.165-42.24 47.187-27.238 26.022 15.001 47.187 51.68 47.187 81.728 0 30.048-21.171 42.259-47.187 27.238zm0-99.2c-21.363-12.333-38.746-2.297-38.746 22.368 0 24.666 17.383 54.765 38.746 67.098 21.363 12.333 38.74 2.304 38.74-22.362 0-24.665-17.377-54.79-38.74-67.123v.02z"/>
        <path fill="#D33D3D" fill-rule="nonzero" d="M53.645 82.944l8.646-4.723-1.293 5.926zM118.797 199.22c.211-.097 9.453-5.268 9.453-5.268l-7.143-1.146-2.31 6.413z"/>
        <ellipse cx="87.446" cy="140.431" fill="#F4F4F4" fill-rule="nonzero" rx="35.078" ry="60.762" transform="rotate(-30 87.446 140.43)"/>
        <path fill="#EA1F49" fill-rule="nonzero" d="M87.45 194.918c-26.01-15.027-47.188-51.686-47.188-81.734 0-30.048 21.172-42.24 47.188-27.238 26.016 15.001 47.187 51.686 47.187 81.728 0 30.041-21.165 42.246-47.187 27.244zm0-99.2c-21.357-12.332-38.74-2.304-38.74 22.362 0 24.666 17.383 54.771 38.74 67.104 21.356 12.333 38.745 2.298 38.745-22.368 0-24.666-17.395-54.784-38.745-67.117v.02z"/>
        <path fill="#EA1F49" fill-rule="nonzero" d="M87.45 174.182c-16.116-9.305-29.21-32.019-29.21-50.63 0-18.611 13.114-26.182 29.229-16.877 16.115 9.306 29.235 32 29.235 50.63 0 18.631-13.133 26.19-29.254 16.877zm0-57.753c-11.463-6.618-20.788-1.235-20.788 12s9.325 29.389 20.788 36.006c11.462 6.618 20.787 1.229 20.787-12.006s-9.325-29.383-20.787-36z"/>
        <path fill="#EA1F49" fill-rule="nonzero" d="M87.45 153.78c-6.4-3.68-11.559-12.666-11.559-20.026 0-7.36 5.184-10.356 11.559-6.676 6.374 3.68 11.564 12.666 11.564 20.026 0 7.36-5.184 10.336-11.564 6.675zm0-16.948c-1.716-.992-3.117-.186-3.117 1.798a6.906 6.906 0 0 0 3.117 5.396c1.721.992 3.116.185 3.116-1.799a6.886 6.886 0 0 0-3.116-5.395z"/>
        <path fill="#2B303F" fill-rule="nonzero" d="M7.053 186.176l-4.327.058 14.055-5.965-8.147 5.062z"/>
        <ellipse cx="8.155" cy="186.821" fill="#E8A30A" fill-rule="nonzero" rx="1" ry="1.562" transform="rotate(-30 8.155 186.821)"/>
        <ellipse cx="87.652" cy="140.827" fill="#E8A30A" fill-rule="nonzero" rx="1" ry="1.562" transform="rotate(-30 87.652 140.827)"/>
        <path fill="#2B303F" fill-rule="nonzero" d="M10.01 192.442l-1.03-4.308 11.302-7.206-.493 1.018z"/>
        <path fill="#E8A30A" fill-rule="nonzero" d="M8.96 188.16c.096-.083 79.456-45.958 79.456-45.958l-1.46-2.752-79.602 46.08 1.606 2.63z"/>
    </g>
</svg>