<svg xmlns="http://www.w3.org/2000/svg" width="128" height="128" viewBox="0 0 128 128">
  <g fill="none" fill-rule="evenodd" transform="translate(15 15)">
    <path fill="#665CAC" fill-rule="nonzero" d="M86.8066351,10.2287425 C84.2366509,7.86227545 73.8793049,0.295808383 50.8113744,0.186826347 C50.8113744,0.186826347 23.5943128,-1.46347305 10.3263823,10.7736527 C2.94154818,18.2 0.340600316,29.0670659 0.0774091627,42.5497006 C-0.201263823,56.0323353 -0.557345972,81.2694611 23.6562401,88.1197605 C23.6562401,88.1197605 23.671722,88.1197605 23.671722,88.1197605 L23.6562401,98.5664671 C23.6562401,98.5664671 23.5014218,102.801198 26.2726698,103.657485 C29.6167457,104.700599 31.5829384,101.493413 34.7876777,98.0215569 C36.5371248,96.1221557 38.9677725,93.3197605 40.7946288,91.1868263 C57.3447077,92.588024 70.0862559,89.3808383 71.5260664,88.9137725 C74.8701422,87.8239521 93.7889415,85.3796407 96.8543444,60.142515 C100.02812,34.1269461 95.3061611,17.6550898 86.8066351,10.2287425 Z M89.6088468,58.2742515 C87.0078989,79.354491 71.6654028,80.6934132 68.8477093,81.5964072 C67.6401264,81.9856287 56.4622433,84.788024 42.4047393,83.8538922 C42.4047393,83.8538922 31.9235387,96.5580838 28.656872,99.8742515 C28.1459716,100.388024 27.5421801,100.605988 27.1396524,100.497006 C26.5823065,100.356886 26.4274882,99.6874251 26.4274882,98.7065868 C26.44297,97.3053892 26.5203791,81.3473054 26.5203791,81.3473054 C26.5048973,81.3473054 26.5048973,81.3473054 26.5203791,81.3473054 C6.05339652,75.6335329 7.24549763,54.1329341 7.47772512,42.8766467 C7.70995261,31.6203593 9.81548183,22.4035928 16.0546603,16.2071856 C27.2789889,5.99401198 50.3933649,7.51976048 50.3933649,7.51976048 C69.9159558,7.61317365 79.2669826,13.5137725 81.4344392,15.491018 C88.6180095,21.702994 92.2872038,36.5401198 89.6088468,58.2742515 Z"/>
    <path stroke="#665CAC" stroke-linecap="round" stroke-linejoin="round" stroke-width="2.624" d="M60.3017378 41.9736527C60.0540284 36.8203593 57.4530806 34.1269461 52.4988942 33.8622754M66.9898894 44.2311377C67.0982622 39.4359281 65.6894155 35.4347305 62.7478673 32.211976 59.8063191 28.9892216 55.7345972 27.1988024 50.5017378 26.8251497"/>
    <path stroke="#665CAC" stroke-linecap="round" stroke-linejoin="round" stroke-width="2.624" d="M73.8483412,46.9245509 C73.7864139,38.5952096 71.3093207,32.0562874 66.4325434,27.2610778 C61.5557662,22.4814371 55.471406,20.0526946 48.2104265,20.005988"/>
    <path fill="#665CAC" fill-rule="nonzero" d="M52.7620853,59.5508982 C52.7620853,59.5508982 54.6044234,59.7065868 55.5797788,58.4766467 L57.4995261,56.0479042 C58.428436,54.8335329 60.6733017,54.0706587 62.871722,55.3005988 C64.0947867,56.0011976 66.293207,57.3556886 67.6556082,58.3676647 C69.1109005,59.4419162 72.0988942,61.948503 72.0988942,61.948503 C73.5232227,63.1473054 73.8483412,64.9221557 72.8884676,66.7904192 C72.8884676,66.805988 72.8729858,66.8215569 72.8729858,66.8215569 C71.8821485,68.5808383 70.5507109,70.2467066 68.8631912,71.788024 C68.8477093,71.8035928 68.8477093,71.8035928 68.8322275,71.8191617 C67.4543444,72.9712575 66.0919431,73.6407186 64.7605055,73.7964072 C64.6056872,73.8275449 64.4044234,73.8431138 64.1721959,73.8275449 C63.5838863,73.8275449 63.0110585,73.7497006 62.4382306,73.5628743 L62.3917852,73.5005988 C60.3327014,72.9245509 56.9112164,71.4610778 51.1984202,68.3005988 C47.4827804,66.245509 44.4018957,64.1437126 41.8009479,62.057485 C40.4230648,60.9676647 39.014218,59.7221557 37.5744076,58.2898204 C37.5279621,58.2431138 37.4815166,58.1964072 37.4350711,58.1497006 C37.3886256,58.102994 37.3421801,58.0562874 37.2957346,58.0095808 L37.2957346,58.0095808 C37.2957346,58.0095808 37.2957346,58.0095808 37.2957346,58.0095808 C37.2492891,57.9628743 37.2028436,57.9161677 37.1563981,57.8694611 C37.1099526,57.8227545 37.0635071,57.7760479 37.0170616,57.7293413 C35.592733,56.2814371 34.3541864,54.8646707 33.2704581,53.4790419 C31.1958926,50.8634731 29.1058452,47.7497006 27.0622433,44.0287425 C23.9194313,38.2838323 22.464139,34.8431138 21.8913112,32.7724551 L21.8293839,32.7257485 C21.6436019,32.1497006 21.5507109,31.5736527 21.5661927,30.9820359 C21.5507109,30.748503 21.5661927,30.5461078 21.5971564,30.3904192 C21.7519747,29.051497 22.4176935,27.6814371 23.5633491,26.2958084 C23.578831,26.2802395 23.578831,26.2802395 23.5943128,26.2646707 C25.1270142,24.5676647 26.7680885,23.2287425 28.5330174,22.2323353 C28.5484992,22.2323353 28.563981,22.2167665 28.563981,22.2167665 C30.4218009,21.251497 32.1867299,21.5784431 33.378831,23.0107784 C33.3943128,23.0263473 35.871406,26.0155689 36.9396524,27.4790419 C37.9459716,28.8646707 39.3083728,31.0598802 39.9895735,32.2898204 C41.2126382,34.5005988 40.4540284,36.7580838 39.2464455,37.6922156 L36.8312796,39.6227545 C35.6082148,40.6191617 35.7630332,42.4562874 35.7630332,42.4562874 C35.7630332,42.4562874 39.3548183,56.1101796 52.7620853,59.5508982 Z"/>
  </g>
</svg>