<svg xmlns="http://www.w3.org/2000/svg" width="128" height="128" viewBox="0 0 128 128">
  <defs>
    <linearGradient id="whatsapp-a" x1="50.001%" x2="50.001%" y1="99.99%" y2="-.011%">
      <stop offset="0%" stop-color="#20B038"/>
      <stop offset="100%" stop-color="#60D66A"/>
    </linearGradient>
    <linearGradient id="whatsapp-b" x1="50.001%" x2="50.001%" y1="100.003%" y2=".003%">
      <stop offset="0%" stop-color="#F9F9F9"/>
      <stop offset="100%" stop-color="#FFF"/>
    </linearGradient>
  </defs>
  <g fill="none" fill-rule="evenodd" transform="translate(9.775 6.142)">
    <path fill="#FFF" fill-rule="nonzero" d="M31.2675185,94.1949683 L32.9410719,95.1869944 C39.9732053,99.3602334 48.0354621,101.567278 56.2570671,101.571726 L56.2750021,101.571726 C81.5244646,101.571726 102.074505,81.0264514 102.08404,55.7754002 C102.088009,43.5376801 97.3278987,32.0320404 88.6789291,23.3751272 C80.029324,14.7198027 68.5292448,9.94984199 56.2913659,9.9447581 C31.0228388,9.9447581 10.472798,30.4868553 10.4632623,55.7379065 C10.4599294,64.3908479 12.880497,72.8181916 17.4668022,80.1088091 L18.5568997,81.8417804 L13.9280169,98.7409519 L31.2675185,94.1949683 Z M0.695857584,111.831304 L8.51488198,83.2804898 C3.69201698,74.9244794 1.15483762,65.4455646 1.15880941,55.7353328 C1.17056591,25.3559065 25.8935279,0.640252526 56.2761317,0.640252526 C71.0190979,0.646607389 84.8571315,6.38441389 95.2632209,16.7990824 C105.668198,27.213592 111.396631,41.0571862 111.391868,55.7798168 C111.378997,86.1576544 86.6507918,110.878074 56.2761317,110.878074 C56.2738916,110.878074 56.2772527,110.878074 56.2761317,110.878074 L56.2525917,110.878074 C47.0285069,110.874897 37.9648824,108.561091 29.9148587,104.170516 L0.695857584,111.831304 Z"/>
    <path fill="url(#whatsapp-a)" fill-rule="nonzero" d="M3.05827819,55.7639296 C3.05494189,65.1371948 5.50410639,74.2883576 10.1611094,82.3558571 L2.61216676,109.91849 L30.8182296,102.522541 C38.5895925,106.757422 47.3392867,108.993063 56.2440396,108.995923 L56.2670188,108.995923 C85.5915377,108.995923 109.460406,85.1334092 109.47312,55.8057129 C109.478676,41.5929012 103.94915,28.2303702 93.9029052,18.175387 C83.8582486,8.12183365 70.4995306,2.58214002 56.2646357,2.57546742 C26.9385281,2.57546742 3.06965975,26.4348035 3.05695003,55.7640885"/>
    <path fill="url(#whatsapp-b)" fill-rule="nonzero" d="M1.15817392,55.7480425 C1.15483762,65.4581155 3.69201698,74.9381424 8.51488198,83.2931995 L0.695222097,111.842425 L29.913297,104.181478 C37.9637973,108.571577 47.0269452,110.885224 56.25103,110.889037 L56.27457,110.889037 C86.6492301,110.889037 111.377594,86.1686165 111.390307,55.7907789 C111.395387,41.0673539 105.666795,27.2240776 95.2616592,16.8100445 C84.8549343,6.39601152 71.0178539,0.657569529 56.27457,0.651214666 C25.893555,0.651214666 1.16995743,25.3668686 1.1572477,55.7462949 L1.15817392,55.7480425 Z M18.5568647,81.853664 L17.4661953,80.1213281 C12.8798902,72.8297575 10.4593225,64.4025726 10.4626554,55.7504256 C10.4726678,30.5009631 31.0222319,9.95727718 56.290759,9.95727718 C68.5273669,9.96204333 80.0277639,14.7324807 88.6783222,23.3876463 C97.3279273,32.0434474 102.087403,43.5500403 102.084068,55.7863305 C102.072858,81.0373818 81.5229045,101.582656 56.273442,101.582656 L56.255507,101.582656 C48.0340608,101.57789 39.9711685,99.3710049 32.9395118,95.1984013 L31.2659584,94.2063753 L13.9267126,98.7523271 L18.5568647,81.853664 Z"/>
    <path fill="#FFF" d="M42.4997402,32.7116613 C41.4679328,30.418191 40.3822996,30.3722771 39.4009498,30.3319237 C38.5978062,30.2977663 37.6792583,30.299961 36.7617749,30.299961 C35.8431793,30.299961 34.3512161,30.6446783 33.0896168,32.0227941 C31.8268895,33.4009734 28.2691349,36.7323836 28.2691349,43.5077805 C28.2691349,50.2838129 33.2046399,56.8310701 33.8922361,57.7507778 C34.5810398,58.6688173 43.4196068,73.0178614 57.4163531,78.5375372 C69.0498845,83.1249545 71.4172301,82.2125549 73.9421764,81.9826678 C76.4671226,81.7534319 82.0902238,78.6524014 83.2374356,75.4365226 C84.385267,72.2211204 84.385267,69.4648571 84.0411352,68.8892653 C83.6970035,68.3153417 82.7784079,67.9706538 81.4013248,67.282438 C80.0237016,66.5936343 73.2532773,63.2617157 71.9912014,62.8021002 C70.7284741,62.3430725 69.810371,62.1138366 68.8917755,63.4925879 C67.973736,64.8696392 65.3362292,67.9707015 64.5324978,68.8892971 C63.7293542,69.8095767 62.9256705,69.9244726 61.5485715,69.235653 C60.1709482,68.5446093 55.7354599,67.0918397 50.4737915,62.4008382 C46.3796705,58.7506044 43.6159403,54.2427818 42.8122089,52.8639352 C42.0090653,51.4868839 42.7264659,50.7409341 43.4169536,50.0542911 C44.0357108,49.4372179 44.7945769,48.4463517 45.4833964,47.6426203 C46.1705161,46.8383646 46.3997519,46.264441 46.8587796,45.3458136 C47.3183633,44.4266461 47.0885715,43.6223746 46.7444397,42.9335073 C46.3997519,42.2447037 43.7234963,35.4344503 42.4989141,32.7112323"/>
  </g>
</svg>